<svg width="24" height="30" viewBox="0 0 24 30" fill="none" xmlns="http://www.w3.org/2000/svg">
<path d="M22.1998 11.9494L5.69983 0.949373C5.0875 0.54054 4.378 0.333374 3.66667 0.333374C3.07267 0.333374 2.47867 0.476373 1.936 0.767873C0.744333 1.40587 0 2.64704 0 4.00004V26C0 27.353 0.744333 28.5942 1.936 29.2322C2.47867 29.5237 3.07267 29.6667 3.66667 29.6667C4.378 29.6667 5.0875 29.4595 5.70167 29.0507L22.2017 18.0507C23.221 17.3705 23.8333 16.2265 23.8333 15C23.8333 13.7735 23.221 12.6295 22.1998 11.9494Z" fill="#00AEEF"/>
</svg>
